<?xml version="1.0" encoding="UTF-8"?>
<!DOCTYPE svg PUBLIC "-//W3C//DTD SVG 1.1//EN" "http://www.w3.org/Graphics/SVG/1.1/DTD/svg11.dtd">
<svg version="1.1" xmlns="http://www.w3.org/2000/svg" xmlns:xlink="http://www.w3.org/1999/xlink" x="0" y="0" width="75" height="72" viewBox="0, 0, 75, 72">
  <g id="Layer_1" transform="translate(-454, -216)">
    <path d="M455.5,217.5 L528.5,217.5 L528.5,287.5 L455.5,287.5 L455.5,217.5 z" fill-opacity="0" stroke="#000000" stroke-width="0.25"/>
    <path d="M468,228.5 L516,228.5 L516,276.5 L468,276.5 L468,228.5 z" fill-opacity="0" stroke="#000000" stroke-width="4"/>
    <path d="M516,228.5 L468,276.5" fill-opacity="0" stroke="#000000" stroke-width="4"/>
    <path d="M468,228.5 L516,276.5" fill-opacity="0" stroke="#000000" stroke-width="4"/>
  </g>
</svg>
